[
  {
    "accountNumber" : 1,
    "accountHolderName" : null,
    "amount" : 10,
    "expectedString" : "Successfully applied overdraft"
  },
  {
    "accountNumber" : 2,
    "accountHolderName" : null,
    "amount" : 20,
    "expectedString" : "Successfully applied overdraft"
  },
  {
    "accountNumber" : 3,
    "accountHolderName" : null,
    "amount" : 30,
    "expectedString" : "Successfully applied overdraft"
  }
]